sim/dmem.vcd
$date
	Tue Mar 24 00:44:09 2026
$end
$version
	Icarus Verilog
$end
$timescale
	1ps
$end
$scope module dmem_tb $end
$var wire 32 ! rd [31:0] $end
$var reg 32 " addr [31:0] $end
$var reg 1 # clk $end
$var reg 32 $ wd [31:0] $end
$var reg 1 % we $end
$scope module dmem_inst $end
$var wire 32 & addr [31:0] $end
$var wire 1 # clk $end
$var wire 32 ' rd [31:0] $end
$var wire 32 ( wd [31:0] $end
$var wire 1 % we $end
$upscope $end
$upscope $end
$enddefinitions $end
$comment Show the parameter values. $end
$dumpall
$end
#0
$dumpvars
b1010 (
bx '
b0 &
1%
b1010 $
0#
b0 "
bx !
$end
#5000
b1010 !
b1010 '
1#
#10000
bx !
bx '
0#
b10101010 $
b10101010 (
b100 "
b100 &
#15000
b10101010 !
b10101010 '
1#
#20000
bx !
bx '
0#
b101010101010 $
b101010101010 (
b1000 "
b1000 &
#25000
b101010101010 !
b101010101010 '
1#
#30000
bx !
bx '
0#
b1010101010101010 $
b1010101010101010 (
b1100 "
b1100 &
#35000
b1010101010101010 !
b1010101010101010 '
1#
#40000
b1010 !
b1010 '
0#
b1010 $
b1010 (
b0 "
b0 &
0%
#45000
1#
#50000
b10101010 !
b10101010 '
0#
b100 "
b100 &
#55000
1#
#60000
b101010101010 !
b101010101010 '
0#
b1000 "
b1000 &
